…
## Examples

``` r
# \donttest{
# Example usage with a sample data frame
result <- BPL(FHBWheat)
print(result$summary)
#> # A tibble: 153 × 7
#>    field n_total incidence_mean      V   Vbin log_V log_Vbin
#>    <int>   <int>          <dbl>  <dbl>  <dbl> <dbl>    <dbl>
#>  1     1     200          0.52  0.0333 0.0250 -3.40    -3.69
#>  2     2     200          0.535 0.0529 0.0249 -2.94    -3.69
#>  3     3     200          0.3   0.0274 0.021  -3.60    -3.86
#>  4     4     200          0.42  0.0206 0.0244 -3.88    -3.71
#>  5     5     200          0.35  0.01   0.0228 -4.61    -3.78
#>  6     6     200          0.365 0.0466 0.0232 -3.07    -3.76
#>  7     7     200          0.315 0.0245 0.0216 -3.71    -3.84
#>  8     8     200          0.505 0.0352 0.0250 -3.35    -3.69
#>  9     9     200          0.56  0.0204 0.0246 -3.89    -3.70
#> 10    10     200          0.43  0.0243 0.0245 -3.72    -3.71
#> # ℹ 143 more rows
…
